{
    "ItemGiverChained": [
    ],
    "TransportData": [
    ],
    "NpcsTimers": [
    ],
    "FactionData": [
        {
            "Points": 2000,
            "Faction": 0
        }
    ],
    "BankData": [
    ],
    "ItemGiversList": [
    ],
    "MailData": [
    ],
    "PlayerName": "User_5",
    "QuestData": {
        "CompletedQuests": [
            {
                "Quest": 1,
                "Date": 25509529L
            }
        ],
        "ActiveQuests": [
        ]
    },
    "UUID": "26b9b197-98ad-3b09-a026-6cb9ba656d3d",
    "PlayerCompanionId": 0,
    "DialogData": [
        {
            "Dialog": 16
        },
        {
            "Dialog": 4
        },
        {
            "Dialog": 20
        },
        {
            "Dialog": 5
        },
        {
            "Dialog": 6
        },
        {
            "Dialog": 9
        },
        {
            "Dialog": 27
        },
        {
            "Dialog": 12
        },
        {
            "Dialog": 13
        },
        {
            "Dialog": 29
        },
        {
            "Dialog": 14
        },
        {
            "Dialog": 15
        }
    ]
}
