{
    "ItemGiverChained": [
    ],
    "TransportData": [
    ],
    "NpcsTimers": [
    ],
    "FactionData": [
        {
            "Points": 2000,
            "Faction": 0
        }
    ],
    "BankData": [
    ],
    "ItemGiversList": [
    ],
    "MailData": [
    ],
    "PlayerName": "XotakFR",
    "QuestData": {
        "CompletedQuests": [
        ],
        "ActiveQuests": [
            {
                "QuestCompleted": 1b,
                "ExtraData": {
                },
                "Quest": 1
            }
        ]
    },
    "UUID": "41772bc0-8ca4-32d9-8d46-f6ba7a7018b7",
    "PlayerCompanionId": 0,
    "DialogData": [
        {
            "Dialog": 4
        },
        {
            "Dialog": 5
        },
        {
            "Dialog": 6
        },
        {
            "Dialog": 7
        },
        {
            "Dialog": 8
        },
        {
            "Dialog": 9
        },
        {
            "Dialog": 10
        },
        {
            "Dialog": 11
        },
        {
            "Dialog": 12
        },
        {
            "Dialog": 13
        },
        {
            "Dialog": 14
        },
        {
            "Dialog": 15
        },
        {
            "Dialog": 16
        },
        {
            "Dialog": 17
        },
        {
            "Dialog": 18
        },
        {
            "Dialog": 19
        },
        {
            "Dialog": 20
        },
        {
            "Dialog": 21
        },
        {
            "Dialog": 22
        },
        {
            "Dialog": 23
        },
        {
            "Dialog": 24
        },
        {
            "Dialog": 25
        },
        {
            "Dialog": 26
        },
        {
            "Dialog": 27
        },
        {
            "Dialog": 28
        },
        {
            "Dialog": 29
        },
        {
            "Dialog": 30
        },
        {
            "Dialog": 31
        }
    ]
}
