{
  "uuid": "a7bdc6db-15bb-3233-9e2d-01823b43620d",
  "name": "User_4",
  "wins": 46,
  "losses": 47,
  "requests": true,
  "rating": {
    "arenakit": 1382
  },
  "matches": [
    {
      "winner": "User_4",
      "loser": "User_5",
      "kit": "arenakit",
      "time": 1683963243866,
      "duration": 27444,
      "health": 6.0
    },
    {
      "winner": "User_1",
      "loser": "User_4",
      "kit": "arenakit",
      "time": 1683963243866,
      "duration": 41388,
      "health": 6.5
    },
    {
      "winner": "User_4",
      "loser": "User_5",
      "kit": "arenakit",
      "time": 1683963243866,
      "duration": 51173,
      "health": 10.0
    },
    {
      "winner": "User_3",
      "loser": "User_4",
      "kit": "arenakit",
      "time": 1683963243866,
      "duration": 72968,
      "health": 5.0
    },
    {
      "winner": "User_3",
      "loser": "User_4",
      "kit": "arenakit",
      "time": 1683963243866,
      "duration": 33338,
      "health": 10.0
    }
  ]
}