{
  "uuid": "f30215b0-a1d2-3a43-82ef-1c00886e8baf",
  "name": "UserFixe_2",
  "wins": 63,
  "losses": 59,
  "requests": true,
  "rating": {
    "arenakit": 1287
  },
  "matches": [
    {
      "winner": "User_2",
      "loser": "UserFixe_2",
      "kit": "arenakit",
      "time": 1683963243866,
      "duration": 44635,
      "health": 10.0
    },
    {
      "winner": "User_2",
      "loser": "UserFixe_2",
      "kit": "arenakit",
      "time": 1683963243866,
      "duration": 51397,
      "health": 5.5
    },
    {
      "winner": "User_1",
      "loser": "UserFixe_2",
      "kit": "arenakit",
      "time": 1683963243866,
      "duration": 18741,
      "health": 5.5
    },
    {
      "winner": "User_1",
      "loser": "UserFixe_2",
      "kit": "arenakit",
      "time": 1683963243866,
      "duration": 17008,
      "health": 10.0
    },
    {
      "winner": "User_1",
      "loser": "UserFixe_2",
      "kit": "arenakit",
      "time": 1683963243866,
      "duration": 15323,
      "health": 8.0
    }
  ]
}