{
  "cfm:root": {
    "criteria": {
      "tick": "2023-04-04 14:04:13 +0000"
    },
    "done": true
  },
  "cfm:install": {
    "criteria": {
      "tick": "2023-04-04 14:04:13 +0000"
    },
    "done": true
  },
  "minecraft:adventure/adventuring_time": {
    "criteria": {
      "plains": "2023-04-04 14:04:13 +0000"
    },
    "done": false
  }
}