{
  "arenakit": {
    "name": "arenakit",
    "displayed": {
      "item": {
        "==": "org.bukkit.inventory.ItemStack",
        "type": "DIAMOND_SWORD",
        "meta": {
          "==": "ItemMeta",
          "meta-type": "UNSPECIFIC",
          "display-name": "§7§larenakit",
          "lore": [
            "§aClick to send",
            "§aa duel request",
            "§awith this kit!"
          ]
        },
        "forgeCapNBT": "H4sIAAAAAAAAAONiYOBikE4uLS7Jz80rSC62yixJzS1OLsosKElNSUksSWRgAAB/ZFwFIwAAAA=="
      }
    },
    "usePermission": false,
    "arenaSpecific": false,
    "characteristics": [ ],
    "items": {
      "INVENTORY": {
        "0": {
          "item": {
            "==": "org.bukkit.inventory.ItemStack",
            "type": "DIAMOND_SWORD",
            "forgeCapNBT": "H4sIAAAAAAAAAONiYOBikE4uLS7Jz80rSC62yixJzS1OLsosKElNSUksSWRgAAB/ZFwFIwAAAA=="
          }
        },
        "1": {
          "item": {
            "==": "org.bukkit.inventory.ItemStack",
            "type": "BOW",
            "forgeCapNBT": "H4sIAAAAAAAAAONiYOBikE4uLS7Jz80rSC62yixJzS1OLsosKElNSUksSWRgAAB/ZFwFIwAAAA=="
          }
        },
        "2": {
          "item": {
            "==": "org.bukkit.inventory.ItemStack",
            "type": "GOLDEN_APPLE",
            "amount": 3,
            "forgeCapNBT": "H4sIAAAAAAAAAONiYOBikE4uLS7Jz80rSC62yixJzS1OLsosKElNSUksSWRgAAB/ZFwFIwAAAA=="
          }
        },
        "38": {
          "item": {
            "==": "org.bukkit.inventory.ItemStack",
            "type": "IRON_CHESTPLATE",
            "forgeCapNBT": "H4sIAAAAAAAAAONiYOBikE4uLS7Jz80rSC62yixJzS1OLsosKElNSUksSWRgAAB/ZFwFIwAAAA=="
          }
        },
        "39": {
          "item": {
            "==": "org.bukkit.inventory.ItemStack",
            "type": "IRON_HELMET",
            "forgeCapNBT": "H4sIAAAAAAAAAONiYOBikE4uLS7Jz80rSC62yixJzS1OLsosKElNSUksSWRgAAB/ZFwFIwAAAA=="
          }
        },
        "8": {
          "item": {
            "==": "org.bukkit.inventory.ItemStack",
            "type": "ARROW",
            "amount": 16,
            "forgeCapNBT": "H4sIAAAAAAAAAONiYOBikE4uLS7Jz80rSC62yixJzS1OLsosKElNSUksSWRgAAB/ZFwFIwAAAA=="
          }
        }
      },
      "ARMOR": {
        "1": {
          "item": {
            "==": "org.bukkit.inventory.ItemStack",
            "type": "IRON_HELMET",
            "forgeCapNBT": "H4sIAAAAAAAAAONiYOBikE4uLS7Jz80rSC62yixJzS1OLsosKElNSUksSWRgAAB/ZFwFIwAAAA=="
          }
        },
        "2": {
          "item": {
            "==": "org.bukkit.inventory.ItemStack",
            "type": "IRON_CHESTPLATE",
            "forgeCapNBT": "H4sIAAAAAAAAAONiYOBikE4uLS7Jz80rSC62yixJzS1OLsosKElNSUksSWRgAAB/ZFwFIwAAAA=="
          }
        }
      }
    }
  }
}